Application System.out is now being redirected...
Validating Input fields
processing of file started.
Creating output file: 20200416_3_ISSUER.665
Creating output file: 20200416_3_SCMST.665
Creating output file: 20200416_3_SEDOL.665
Creating output file: 20200416_3_SCEXH.665
