#
# A fatal error has been detected by the Java Runtime Environment:
#
#  EXCEPTION_ACCESS_VIOLATION (0xc0000005) at pc=0x62ff8bc9, pid=20392, tid=0x00003100
#
# JRE version: Java(TM) SE Runtime Environment (8.0_201-b09) (build 1.8.0_201-b09)
# Java VM: Java HotSpot(TM) Client VM (25.201-b09 mixed mode windows-x86 )
# Problematic frame:
# V  [jvm.dll+0x8bc9]
#
# Failed to write core dump. Minidumps are not enabled by default on client versions of Windows
#
# If you would like to submit a bug report, please visit:
#   http://bugreport.java.com/bugreport/crash.jsp
#

---------------  T H R E A D  ---------------

Current thread (0x0280e400):  VMThread [stack: 0x026b0000,0x02700000] [id=12544]

siginfo: ExceptionCode=0xc0000005, reading address 0x00000000

Registers:
EAX=0x0000001e, EBX=0x75d65560, ECX=0x00000000, EDX=0x6330060c
ESP=0x026fefa8, EBP=0x026fefb0, ESI=0x00000000, EDI=0x6330060d
EIP=0x62ff8bc9, EFLAGS=0x00010216

Top of Stack: (sp=0x026fefa8)
0x026fefa8:   0280e400 026ff074 026ff044 631b5150
0x026fefb8:   6330060c 00000000 00000000 00000000
0x026fefc8:   75bf0000 00000000 632b3aba 026ff088
0x026fefd8:   026ff6e0 00000000 026ff6fc 00000000
0x026fefe8:   00000000 00000000 75d65560 00000000
0x026feff8:   776de859 00000000 00000000 00000000
0x026ff008:   00000000 00000000 00cbe2d0 026ff050
0x026ff018:   776acdc3 77788654 026ff200 026ff1b0 

Instructions: (pc=0x62ff8bc9)
0x62ff8ba9:   c2 08 00 cc cc cc cc 55 8b ec 8b 55 08 56 8b c2
0x62ff8bb9:   57 8b f1 8d 78 01 90 8a 08 40 84 c9 75 f9 2b c7
0x62ff8bc9:   8b 3e 50 8b 47 04 52 8b ce ff d0 8b ce e8 55 10
0x62ff8bd9:   1a 00 5f 5e 5d c2 04 00 cc cc cc cc cc cc cc cc 


Register to memory mapping:

EAX=
[error occurred during error reporting (printing register info), id 0xc0000005]

Stack: [0x026b0000,0x02700000],  sp=0x026fefa8,  free space=315k
Native frames: (J=compiled Java code, j=interpreted, Vv=VM code, C=native code)
V  [jvm.dll+0x8bc9]
V  [jvm.dll+0x1c5150]
V  [jvm.dll+0x1c6a88]
C  [msvcr100.dll+0x5c556]
C  [msvcr100.dll+0x5c600]
C  [KERNEL32.DLL+0x18484]
C  [ntdll.dll+0x6302c]
C  [ntdll.dll+0x62ffa]

VM_Operation (0x0263f480): Exit, mode: safepoint, requested by thread 0x0270d000


---------------  P R O C E S S  ---------------

Java Threads: ( => current thread )
  0x1571bc00 JavaThread "TimerQueue" daemon [_thread_blocked, id=1580, stack(0x16cf0000,0x16d40000)]
  0x15658000 JavaThread "Image Fetcher 0" daemon [_thread_blocked, id=13108, stack(0x16750000,0x167a0000)]
  0x1564d000 JavaThread "AWT-EventQueue-0" [_thread_blocked, id=19448, stack(0x166c0000,0x16710000)]
  0x155f9000 JavaThread "AWT-Shutdown" [_thread_blocked, id=6092, stack(0x15af0000,0x15b40000)]
  0x155f8400 JavaThread "Java2D Disposer" daemon [_thread_blocked, id=13892, stack(0x15a30000,0x15a80000)]
  0x14ea8c00 JavaThread "Service Thread" daemon [_thread_blocked, id=12464, stack(0x153e0000,0x15430000)]
  0x14e87c00 JavaThread "C1 CompilerThread0" daemon [_thread_blocked, id=16908, stack(0x15350000,0x153a0000)]
  0x14e86c00 JavaThread "Attach Listener" daemon [_thread_blocked, id=21656, stack(0x152c0000,0x15310000)]
  0x14e84c00 JavaThread "Signal Dispatcher" daemon [_thread_blocked, id=23560, stack(0x15230000,0x15280000)]
  0x14e7a800 JavaThread "Finalizer" daemon [_thread_blocked, id=21144, stack(0x150b0000,0x15100000)]
  0x14e64c00 JavaThread "Reference Handler" daemon [_thread_blocked, id=1860, stack(0x15060000,0x150b0000)]
  0x0270d000 JavaThread "main" [_thread_blocked, id=1300, stack(0x025f0000,0x02640000)]

Other Threads:
=>0x0280e400 VMThread [stack: 0x026b0000,0x02700000] [id=12544]

VM state:at safepoint (shutting down)

VM Mutex/Monitor currently owned by a thread:  ([mutex/lock_event])
[0x0270bdd8] Threads_lock - owner thread: 0x0280e400

Heap:
 def new generation   total 4928K, used 2618K [0x04a00000, 0x04f50000, 0x09f50000)
  eden space 4416K,  47% used [0x04a00000, 0x04c0e8b8, 0x04e50000)
  from space 512K, 100% used [0x04ed0000, 0x04f50000, 0x04f50000)
  to   space 512K,   0% used [0x04e50000, 0x04e50000, 0x04ed0000)
 tenured generation   total 10944K, used 1149K [0x09f50000, 0x0aa00000, 0x14a00000)
   the space 10944K,  10% used [0x09f50000, 0x0a06f710, 0x0a06f800, 0x0aa00000)
 Metaspace       used 7536K, capacity 7708K, committed 7808K, reserved 8576K

Card table byte_map: [0x04890000,0x04920000] byte_map_base: 0x0486b000

Polling page: 0x00890000

CodeCache: size=32768Kb used=1122Kb max_used=1122Kb free=31645Kb
 bounds [0x02810000, 0x02930000, 0x04810000]
 total_blobs=534 nmethods=309 adapters=156
 compilation: enabled

Compilation events (10 events):
Event: 3.531 Thread 0x14e87c00  304             java.awt.Color::getRGB (5 bytes)
Event: 3.531 Thread 0x14e87c00 nmethod 304 0x02928008 code [0x02928100, 0x02928180]
Event: 3.531 Thread 0x14e87c00  305             java.lang.Integer::intValue (5 bytes)
Event: 3.532 Thread 0x14e87c00 nmethod 305 0x029281c8 code [0x029282c0, 0x02928340]
Event: 3.532 Thread 0x14e87c00  307             java.awt.Component::isDisplayable (13 bytes)
Event: 3.532 Thread 0x14e87c00 nmethod 307 0x02928648 code [0x02928740, 0x029287d0]
Event: 6.052 Thread 0x14e87c00  308             java.awt.Component::isVisible (5 bytes)
Event: 6.052 Thread 0x14e87c00 nmethod 308 0x02928808 code [0x02928900, 0x02928980]
Event: 6.052 Thread 0x14e87c00  309             java.awt.Component::isVisible_NoClientCode (5 bytes)
Event: 6.052 Thread 0x14e87c00 nmethod 309 0x029289c8 code [0x02928ac0, 0x02928b40]

GC Heap History (2 events):
Event: 2.662 GC heap before
{Heap before GC invocations=0 (full 0):
 def new generation   total 4928K, used 4416K [0x04a00000, 0x04f50000, 0x09f50000)
  eden space 4416K, 100% used [0x04a00000, 0x04e50000, 0x04e50000)
  from space 512K,   0% used [0x04e50000, 0x04e50000, 0x04ed0000)
  to   space 512K,   0% used [0x04ed0000, 0x04ed0000, 0x04f50000)
 tenured generation   total 10944K, used 0K [0x09f50000, 0x0aa00000, 0x14a00000)
   the space 10944K,   0% used [0x09f50000, 0x09f50000, 0x09f50200, 0x0aa00000)
 Metaspace       used 6916K, capacity 7100K, committed 7168K, reserved 7552K
Event: 2.666 GC heap after
Heap after GC invocations=1 (full 0):
 def new generation   total 4928K, used 512K [0x04a00000, 0x04f50000, 0x09f50000)
  eden space 4416K,   0% used [0x04a00000, 0x04a00000, 0x04e50000)
  from space 512K, 100% used [0x04ed0000, 0x04f50000, 0x04f50000)
  to   space 512K,   0% used [0x04e50000, 0x04e50000, 0x04ed0000)
 tenured generation   total 10944K, used 1149K [0x09f50000, 0x0aa00000, 0x14a00000)
   the space 10944K,  10% used [0x09f50000, 0x0a06f710, 0x0a06f800, 0x0aa00000)
 Metaspace       used 6916K, capacity 7100K, committed 7168K, reserved 7552K
}

Deoptimization events (0 events):
No events

Classes redefined (0 events):
No events

Internal exceptions (10 events):
Event: 1.147 Thread 0x0270d000 Exception <a 'java/security/PrivilegedActionException'> (0x04b31b70) thrown at [C:\re\workspace\8-2-build-windows-i586-cygwin\jdk8u201\12322\hotspot\src\share\vm\prims\jvm.cpp, line 1502]
Event: 1.147 Thread 0x0270d000 Exception <a 'java/security/PrivilegedActionException'> (0x04b31f50) thrown at [C:\re\workspace\8-2-build-windows-i586-cygwin\jdk8u201\12322\hotspot\src\share\vm\prims\jvm.cpp, line 1502]
Event: 1.147 Thread 0x0270d000 Exception <a 'java/security/PrivilegedActionException'> (0x04b36160) thrown at [C:\re\workspace\8-2-build-windows-i586-cygwin\jdk8u201\12322\hotspot\src\share\vm\prims\jvm.cpp, line 1502]
Event: 1.147 Thread 0x0270d000 Exception <a 'java/security/PrivilegedActionException'> (0x04b36540) thrown at [C:\re\workspace\8-2-build-windows-i586-cygwin\jdk8u201\12322\hotspot\src\share\vm\prims\jvm.cpp, line 1502]
Event: 2.428 Thread 0x0270d000 Exception <a 'java/io/FileNotFoundException'> (0x04b790c0) thrown at [C:\re\workspace\8-2-build-windows-i586-cygwin\jdk8u201\12322\hotspot\src\share\vm\prims\jni.cpp, line 709]
Event: 2.445 Thread 0x0270d000 Exception <a 'java/lang/NoSuchFieldError': method resolution failed> (0x04c36c60) thrown at [C:\re\workspace\8-2-build-windows-i586-cygwin\jdk8u201\12322\hotspot\src\share\vm\prims\methodHandles.cpp, line 1167]
Event: 2.446 Thread 0x0270d000 Exception <a 'java/lang/NoSuchFieldError': method resolution failed> (0x04c42e50) thrown at [C:\re\workspace\8-2-build-windows-i586-cygwin\jdk8u201\12322\hotspot\src\share\vm\prims\methodHandles.cpp, line 1167]
Event: 2.467 Thread 0x0270d000 Exception <a 'java/io/FileNotFoundException'> (0x04cce590) thrown at [C:\re\workspace\8-2-build-windows-i586-cygwin\jdk8u201\12322\hotspot\src\share\vm\prims\jni.cpp, line 709]
Event: 2.612 Thread 0x0270d000 Exception <a 'java/io/FileNotFoundException'> (0x04dcb100) thrown at [C:\re\workspace\8-2-build-windows-i586-cygwin\jdk8u201\12322\hotspot\src\share\vm\prims\jni.cpp, line 709]
Event: 3.469 Thread 0x0270d000 Exception <a 'java/io/FileNotFoundException'> (0x04bd2660) thrown at [C:\re\workspace\8-2-build-windows-i586-cygwin\jdk8u201\12322\hotspot\src\share\vm\prims\jni.cpp, line 709]

Events (10 events):
Event: 6.524 loading class java/awt/KeyboardFocusManager$2
Event: 6.524 loading class java/awt/KeyboardFocusManager$2 done
Event: 6.525 loading class sun/awt/SunToolkit$1
Event: 6.525 loading class sun/awt/SunToolkit$1 done
Event: 6.527 Thread 0x15822000 Thread added: 0x15822000
Event: 6.527 Thread 0x15822400 Thread added: 0x15822400
Event: 6.527 Thread 0x15822000 Thread exited: 0x15822000
Event: 6.531 Thread 0x155f9800 Thread exited: 0x155f9800
Event: 6.633 Thread 0x15822400 Thread exited: 0x15822400
Event: 6.633 Executing VM operation: Exit


Dynamic libraries:
0x010a0000 - 0x010d3000 	C:\Program Files (x86)\Java\jre1.8.0_201\bin\javaw.exe
0x77670000 - 0x77800000 	C:\windows\SYSTEM32\ntdll.dll
0x750d0000 - 0x751b0000 	C:\windows\System32\KERNEL32.DLL
0x77220000 - 0x77404000 	C:\windows\System32\KERNELBASE.dll
0x77460000 - 0x774d8000 	C:\windows\System32\ADVAPI32.dll
0x751b0000 - 0x7526f000 	C:\windows\System32\msvcrt.dll
0x74f10000 - 0x74f54000 	C:\windows\System32\sechost.dll
0x75ac0000 - 0x75b80000 	C:\windows\System32\RPCRT4.dll
0x73f30000 - 0x73f50000 	C:\windows\System32\SspiCli.dll
0x73f20000 - 0x73f2a000 	C:\windows\System32\CRYPTBASE.dll
0x75500000 - 0x75558000 	C:\windows\System32\bcryptPrimitives.dll
0x76ff0000 - 0x7717d000 	C:\windows\System32\USER32.dll
0x73f90000 - 0x73fa7000 	C:\windows\System32\win32u.dll
0x77430000 - 0x77452000 	C:\windows\System32\GDI32.dll
0x741e0000 - 0x74344000 	C:\windows\System32\gdi32full.dll
0x75270000 - 0x752ed000 	C:\windows\System32\msvcp_win.dll
0x75560000 - 0x7567e000 	C:\windows\System32\ucrtbase.dll
0x69bf0000 - 0x69df4000 	C:\windows\WinSxS\x86_microsoft.windows.common-controls_6595b64144ccf1df_6.0.17134.407_none_42f1d43a44dfbaef\COMCTL32.dll
0x74350000 - 0x745ac000 	C:\windows\System32\combase.dll
0x74f60000 - 0x74f86000 	C:\windows\System32\IMM32.DLL
0x623f0000 - 0x624af000 	C:\Program Files (x86)\Java\jre1.8.0_201\bin\msvcr100.dll
0x62ff0000 - 0x633c5000 	C:\Program Files (x86)\Java\jre1.8.0_201\bin\client\jvm.dll
0x75b80000 - 0x75b86000 	C:\windows\System32\PSAPI.DLL
0x73e20000 - 0x73e44000 	C:\windows\SYSTEM32\WINMM.dll
0x6bf70000 - 0x6bf78000 	C:\windows\SYSTEM32\WSOCK32.dll
0x73ee0000 - 0x73ee8000 	C:\windows\SYSTEM32\VERSION.dll
0x73df0000 - 0x73e13000 	C:\windows\SYSTEM32\WINMMBASE.dll
0x77500000 - 0x77567000 	C:\windows\System32\WS2_32.dll
0x73f50000 - 0x73f89000 	C:\windows\System32\cfgmgr32.dll
0x64000000 - 0x6400c000 	C:\Program Files (x86)\Java\jre1.8.0_201\bin\verify.dll
0x63cb0000 - 0x63cd1000 	C:\Program Files (x86)\Java\jre1.8.0_201\bin\java.dll
0x63fe0000 - 0x63ff4000 	C:\Program Files (x86)\Java\jre1.8.0_201\bin\zip.dll
0x75bf0000 - 0x76f3a000 	C:\windows\System32\SHELL32.dll
0x748c0000 - 0x74948000 	C:\windows\System32\shcore.dll
0x74950000 - 0x74f09000 	C:\windows\System32\windows.storage.dll
0x76f50000 - 0x76f95000 	C:\windows\System32\shlwapi.dll
0x75ab0000 - 0x75abf000 	C:\windows\System32\kernel.appcore.dll
0x774e0000 - 0x774f8000 	C:\windows\System32\profapi.dll
0x76fa0000 - 0x76fe5000 	C:\windows\System32\powrprof.dll
0x77570000 - 0x77578000 	C:\windows\System32\FLTLIB.DLL
0x63b60000 - 0x63ca7000 	C:\Program Files (x86)\Java\jre1.8.0_201\bin\awt.dll
0x77180000 - 0x77216000 	C:\windows\System32\OLEAUT32.dll
0x698f0000 - 0x6998d000 	C:\windows\SYSTEM32\apphelp.dll
0x6a350000 - 0x6a373000 	C:\windows\system32\DWMAPI.DLL
0x6a380000 - 0x6a3fc000 	C:\windows\system32\uxtheme.dll
0x63a80000 - 0x63b59000 	C:\windows\system32\opengl32.dll
0x63a40000 - 0x63a7f000 	C:\windows\SYSTEM32\GLU32.dll
0x73fb0000 - 0x740f3000 	C:\windows\System32\MSCTF.dll
0x638a0000 - 0x6395f000 	C:\windows\system32\pmls.dll
0x74610000 - 0x7470c000 	C:\windows\System32\ole32.dll
0x64550000 - 0x645a6000 	C:\windows\system32\OLEACC.dll
0x689e0000 - 0x68de5000 	C:\windows\system32\WININET.dll
0x73ea0000 - 0x73ec9000 	C:\windows\SYSTEM32\ntmarta.dll
0x68fd0000 - 0x6907c000 	c:\Program Files (x86)\HP\HP ProtectTools Security Manager\Bin\DpoFeedb.dll
0x73ef0000 - 0x73f11000 	C:\windows\SYSTEM32\USERENV.dll
0x634b0000 - 0x6351a000 	C:\windows\SYSTEM32\Schannel.dll
0x74720000 - 0x748b6000 	C:\windows\System32\CRYPT32.dll
0x754f0000 - 0x754fe000 	C:\windows\System32\MSASN1.dll
0x73d90000 - 0x73de6000 	C:\windows\system32\mswsock.dll
0x63860000 - 0x63899000 	C:\Program Files (x86)\Java\jre1.8.0_201\bin\fontmanager.dll
0x752f0000 - 0x75373000 	C:\windows\System32\clbcatq.dll
0x68e10000 - 0x68f81000 	C:\windows\SYSTEM32\WindowsCodecs.dll
0x63a20000 - 0x63a35000 	C:\Program Files (x86)\Java\jre1.8.0_201\bin\net.dll
0x6f160000 - 0x6f2fc000 	C:\windows\SYSTEM32\urlmon.dll
0x6ef30000 - 0x6f158000 	C:\windows\SYSTEM32\iertutil.dll
0x63a10000 - 0x63a1f000 	C:\Program Files (x86)\Java\jre1.8.0_201\bin\nio.dll
0x63790000 - 0x637c2000 	C:\Program Files (x86)\Java\jre1.8.0_201\bin\t2k.dll
0x697e0000 - 0x6986b000 	C:\windows\System32\CoreMessaging.dll
0x63ce0000 - 0x63e62000 	C:\windows\SYSTEM32\dbghelp.dll

VM Arguments:
java_command: O:\AUTO\Apps\opsftp\dist\opsftp.jar -site DOTCOM -Upload -fileext .zip -local O:/Prodman/Dev/WFI/Feeds/Generic/SEDOL_Licence/V77i/ -remote /WFI/SEDOL_Licence/V77i/ -XCRC on -log o:\AUTO\logs\19\190410_Ftp.log
java_class_path (initial): O:\AUTO\Apps\opsftp\dist\opsftp.jar
Launcher Type: SUN_STANDARD

Environment Variables:
PATH=C:\Program Files (x86)\Common Files\Oracle\Java\javapath;C:\windows\system32;C:\windows;C:\windows\System32\Wbem;C:\windows\System32\WindowsPowerShell\v1.0\;C:\windows\System32\OpenSSH\;C:\Program Files\Google\Google Apps Sync\;C:\Program Files\Google\Google Apps Migration\;C:\Program Files (x86)\Microsoft SQL Server\Client SDK\ODBC\130\Tools\Binn\;C:\Program Files (x86)\Microsoft SQL Server\140\Tools\Binn\;C:\Program Files (x86)\Microsoft SQL Server\140\DTS\Binn\;C:\Program Files (x86)\Microsoft SQL Server\140\Tools\Binn\ManagementStudio\;C:\Program Files (x86)\Microsoft SQL Server\80\Tools\Binn\;C:\Program Files (x86)\Microsoft SQL Server\90\Tools\binn\;C:\Program Files (x86)\Microsoft SQL Server\90\DTS\Binn\;C:\Program Files (x86)\Microsoft SQL Server\90\Tools\Binn\VSShell\Common7\IDE\;C:\Program Files (x86)\Microsoft Visual Studio 8\Common7\IDE\PrivateAssemblies\;C:\Program Files (x86)\Intel\Intel(R) Management Engine Components\DAL;C:\Program Files\Intel\Intel(R) Management Engine Components\DAL;C:\Users\y.laifa\AppData\Local\Programs\Python\Python37\Scripts\;C:\Users\y.laifa\AppData\Local\Programs\Python\Python37\;C:\Users\y.laifa\AppData\Local\Microsoft\WindowsApps;;C:\Program Files\JetBrains\PyCharm Community Edition 2018.3.4\bin;
USERNAME=y.laifa
OS=Windows_NT
PROCESSOR_IDENTIFIER=Intel64 Family 6 Model 158 Stepping 10, GenuineIntel



---------------  S Y S T E M  ---------------

OS: Windows 10.0 , 64 bit Build 17134 (10.0.17134.1)

CPU:total 12 (initial active 12) (6 cores per cpu, 2 threads per core) family 6 model 158 stepping 10, cmov, cx8, fxsr, mmx, sse, sse2, sse3, ssse3, sse4.1, sse4.2, popcnt, avx, avx2, aes, clmul, erms, rtm, 3dnowpref, lzcnt, ht, tsc, tscinvbit, bmi1, bmi2, adx

Memory: 4k page, physical 16551208k(9023356k free), swap 19041576k(10075328k free)

vm_info: Java HotSpot(TM) Client VM (25.201-b09) for windows-x86 JRE (1.8.0_201-b09), built on Dec 16 2018 00:13:48 by "java_re" with MS VC++ 10.0 (VS2010)

time: Wed Apr 10 22:13:41 2019
timezone: GMT Summer Time
elapsed time: 7 seconds (0d 0h 0m 7s)

